{
  "AWSTemplateFormatVersion": "2010-09-09",

  "Description": "RDS Postgres server for our webapp",

  "Parameters": {
    "Environment": {
      "AllowedValues": [ "Dev", "Prod" ],
      "Type": "String",
      "Default": "Dev"
    },
    "Ec2KeyPair": {
      "Description": "EC2 key pair for SSH access to servers (must be manually created prior to creating stack)",
      "Type": "AWS::EC2::KeyPair::KeyName"
    },
    "VpcStackName": {
      "Description": "Name of the stack containing the network and security group (type carefully)",
      "Type": "String"
    },
    "AdminUser": {
      "Description": "Postgre admin username",
      "Type": "String",
      "Default": "pgadmin"
    },
    "AdminPass": {
      "Description": "Postgre admin password",
      "Type": "String"
    }
  },

  "Outputs": {
    "DbHost": {
      "Value": { "Fn::GetAtt": [ "RdsInstance", "Endpoint.Address" ] },
      "Export": { "Name": { "Fn::Sub": "${AWS::StackName}-DbHost" } }
    }
  },

  "Mappings": {
    "RegionMap": {
      "us-east-1": { "AMI": "ami-5cc39523", "1": "us-east-1a", "2": "us-east-1c", "1s": "ue1a", "2s": "ue1c" },
      "us-east-2": { "AMI": "ami-67142d02", "1": "us-east-2a", "2": "us-east-2b", "1s": "ue2a", "2s": "ue2b" },
      "us-west-2": { "AMI": "ami-39c28c41", "1": "us-west-2a", "2": "us-west-2b", "1s": "uw2a", "2s": "uw2b" }
    }
  },

  "Conditions": {
  },

  "Resources": {

    "DbSubnetGroup": {
      "Type" : "AWS::RDS::DBSubnetGroup",
      "Properties" : {
        "DBSubnetGroupDescription" : { "Ref": "AWS::StackName" },
        "SubnetIds" : [
          { "Fn::ImportValue": { "Fn::Sub": "${VpcStackName}-PrivSub1" } },
          { "Fn::ImportValue": { "Fn::Sub": "${VpcStackName}-PrivSub2" } }
        ],
        "Tags" : [
          { "Key": "Environment", "Value": { "Ref": "Environment" } }
        ]
      }
    },

    "RdsInstance": {
      "Type" : "AWS::RDS::DBInstance",
      "Properties" :
      {
        "AllocatedStorage" : "32",
        "AllowMajorVersionUpgrade" : false,
        "AutoMinorVersionUpgrade" : true,
        "AvailabilityZone" : { "Fn::FindInMap" : [ "RegionMap", { "Ref" : "AWS::Region" }, "1" ] },
        "CopyTagsToSnapshot" : true,
        "DBInstanceClass" : "db.t2.micro",
        "DBSubnetGroupName" : { "Ref": "DbSubnetGroup" },
        "Engine" : "postgres",
        "EngineVersion" : "10.3",
        "MasterUsername" : { "Ref": "AdminUser" },
        "MasterUserPassword" : { "Ref": "AdminPass" },
        "MonitoringInterval" : 0,
        "PubliclyAccessible" : false,
        "StorageType" : "gp2",
        "Tags" : [
          { "Key": "Environment", "Value": { "Ref": "Environment" } }
        ],
        "VPCSecurityGroups" : [
          { "Fn::ImportValue": { "Fn::Sub": "${VpcStackName}-${Environment}SecurityGroup" } }
        ]
      }
    }

  }
}
